<svg width="520" height="97" viewBox="0 0 520 97" fill="none" xmlns="http://www.w3.org/2000/svg">
<path d="M239.613 83.5473L240.11 83.4921L239.959 82.1264L239.197 83.2702L239.613 83.5473ZM240.767 93.9459L240.27 94.0011L240.32 94.4459H240.767V93.9459ZM255.128 93.9459V94.4459H255.628V93.9459H255.128ZM255.128 46.5743H255.628V46.0743H255.128V46.5743ZM209.739 46.5743V46.0743H209.239V46.5743H209.739ZM209.739 61.9797H209.239V62.4797H209.739V61.9797ZM238.459 61.9797L238.953 62.0586L239.046 61.4797H238.459V61.9797ZM238.588 35.0203L238.107 35.1575L238.253 35.6703L238.756 35.4912L238.588 35.0203ZM255.512 28.9865L255.68 29.4575L256.136 29.2949L255.988 28.8338L255.512 28.9865ZM60.3649 2.92568H60.8649V2.42568H60.3649V2.92568ZM42.6708 2.92568V2.42568H42.1708V2.92568H42.6708ZM18.053 65.4459H17.5529L17.553 65.4528L18.053 65.4459ZM18.053 57.1013H18.553V56.5029L17.9641 56.6093L18.053 57.1013ZM1 60.1824L0.911101 59.6904L0.5 59.7647V60.1824H1ZM97.4198 73.1487V72.6487H97.0696L96.9499 72.9777L97.4198 73.1487ZM89.8549 93.9459V94.4459H90.2051L90.3248 94.1169L89.8549 93.9459ZM134.347 73.1487L134.816 72.9777L134.697 72.6487H134.347V73.1487ZM141.911 93.9459L141.441 94.1169L141.561 94.4459H141.911V93.9459ZM161.144 93.9459V94.4459H161.869L161.611 93.7682L161.144 93.9459ZM126.525 2.92568L126.993 2.74793L126.87 2.42568H126.525V2.92568ZM106.01 2.92568V2.42568H105.667L105.543 2.74678L106.01 2.92568ZM71.1351 93.9459L70.6682 93.7671L70.4081 94.4459H71.1351V93.9459ZM103.318 56.973L102.848 56.8015L102.603 57.473H103.318V56.973ZM115.883 22.5676L116.353 22.396L115.883 21.1101L115.414 22.396L115.883 22.5676ZM128.449 56.973V57.473H129.163L128.918 56.8015L128.449 56.973ZM272.052 2.92568V2.42568H271.552V2.92568H272.052ZM289.747 2.92568H290.247V2.42568H289.747V2.92568ZM324.237 2.92568V2.42568H323.737V2.92568H324.237ZM341.931 2.92568H342.431V2.42568H341.931V2.92568ZM415.913 73.1487L416.383 72.9777L416.263 72.6487H415.913V73.1487ZM378.986 73.1487V72.6487H378.636L378.516 72.9777L378.986 73.1487ZM423.478 93.9459L423.008 94.1169L423.128 94.4459H423.478V93.9459ZM442.71 93.9459V94.4459H443.436L443.178 93.7682L442.71 93.9459ZM408.092 2.92568L408.559 2.74793L408.436 2.42568H408.092V2.92568ZM387.577 2.92568V2.42568H387.233L387.11 2.74678L387.577 2.92568ZM352.701 93.9459L352.235 93.7671L351.974 94.4459H352.701V93.9459ZM371.421 93.9459V94.4459H371.771L371.891 94.1169L371.421 93.9459ZM410.015 56.973V57.473H410.73L410.485 56.8014L410.015 56.973ZM384.884 56.973L384.414 56.8015L384.169 57.473H384.884V56.973ZM397.449 22.5676L397.919 22.396L397.449 21.1101L396.98 22.396L397.449 22.5676ZM472.2 58.8986V58.3986H471.7V58.8986H472.2ZM472.2 93.9459V94.4459H472.7V93.9459H472.2ZM481.432 58.8986L481.878 58.672L481.739 58.3986H481.432V58.8986ZM499.254 93.9459L498.809 94.1726L498.948 94.4459H499.254V93.9459ZM519 93.9459V94.4459H519.826L519.443 93.7141L519 93.9459ZM499.511 56.7162L499.371 56.2361L498.784 56.4067L499.068 56.9481L499.511 56.7162ZM454.378 2.92568V2.42568H453.878V2.92568H454.378ZM454.378 93.9459H453.878V94.4459H454.378V93.9459ZM472.201 43.6216H471.701V44.1216H472.201V43.6216ZM472.201 18.3311V17.8311H471.701V18.3311H472.201ZM239.197 83.2702C235.193 89.284 226.379 95.3716 212.816 95.3716V96.3716C226.691 96.3716 235.828 90.1349 240.03 83.8244L239.197 83.2702ZM241.264 93.8908L240.11 83.4921L239.116 83.6024L240.27 94.0011L241.264 93.8908ZM255.128 93.4459H240.767V94.4459H255.128V93.4459ZM254.628 46.5743V93.9459H255.628V46.5743H254.628ZM209.739 47.0743H255.128V46.0743H209.739V47.0743ZM210.239 61.9797V46.5743H209.239V61.9797H210.239ZM238.459 61.4797H209.739V62.4797H238.459V61.4797ZM214.098 80.1959C231.181 80.1959 237.895 68.6777 238.953 62.0586L237.966 61.9008C236.972 68.1196 230.608 79.1959 214.098 79.1959V80.1959ZM184.877 48.5C184.877 58.884 188.283 66.8174 193.664 72.1556C199.041 77.4904 206.353 80.1959 214.098 80.1959V79.1959C206.585 79.1959 199.537 76.5737 194.368 71.4457C189.203 66.3211 185.877 58.6566 185.877 48.5H184.877ZM213.97 17.0608C207.001 17.0608 199.726 19.4404 194.189 24.576C188.642 29.7197 184.877 37.593 184.877 48.5H185.877C185.877 37.8395 189.549 30.2431 194.869 25.3092C200.198 20.3671 207.219 18.0608 213.97 18.0608V17.0608ZM239.068 34.8831C236.711 26.6207 228.977 17.0608 213.97 17.0608V18.0608C228.452 18.0608 235.849 27.2441 238.107 35.1575L239.068 34.8831ZM255.344 28.5155L238.42 34.5493L238.756 35.4912L255.68 29.4575L255.344 28.5155ZM213.97 1.5C237.582 1.5 250.609 15.3338 255.036 29.1392L255.988 28.8338C251.441 14.6527 238.055 0.5 213.97 0.5V1.5ZM167.927 48.5C167.927 19.3974 189.608 1.5 213.97 1.5V0.5C189.096 0.5 166.927 18.8053 166.927 48.5H167.927ZM212.816 95.3716C188.596 95.3716 167.927 77.6158 167.927 48.5H166.927C166.927 78.1815 188.057 96.3716 212.816 96.3716V95.3716ZM59.8649 65.8311C59.8649 82.011 48.1414 95.3716 30.7465 95.3716V96.3716C48.7397 96.3716 60.8649 82.5161 60.8649 65.8311H59.8649ZM59.8649 2.92568V65.8311H60.8649V2.92568H59.8649ZM42.6708 3.42568H60.3649V2.42568H42.6708V3.42568ZM43.1708 65.8311V2.92568H42.1708V65.8311H43.1708ZM30.6183 79.5541C34.4612 79.5541 37.6155 78.1901 39.8046 75.7622C41.9886 73.34 43.1708 69.9054 43.1708 65.8311H42.1708C42.1708 69.7162 41.0451 72.8931 39.062 75.0925C37.084 77.2862 34.2121 78.5541 30.6183 78.5541V79.5541ZM17.553 65.4528C17.6184 70.2299 18.9934 73.7708 21.3374 76.1177C23.6812 78.4645 26.9308 79.5541 30.6183 79.5541V78.5541C27.1257 78.5541 24.1566 77.5254 22.0449 75.411C19.9333 73.2967 18.6158 70.0336 18.5529 65.4391L17.553 65.4528ZM17.553 57.1013V65.4459H18.553V57.1013H17.553ZM1.0889 60.6745L18.1419 57.5934L17.9641 56.6093L0.911101 59.6904L1.0889 60.6745ZM1.5 66.2162V60.1824H0.5V66.2162H1.5ZM30.7465 95.3716C21.8832 95.3716 14.5806 92.4579 9.49506 87.3818C4.4096 82.3056 1.5 75.0259 1.5 66.2162H0.5C0.5 75.2511 3.48842 82.7991 8.7886 88.0895C14.0887 93.3799 21.6593 96.3716 30.7465 96.3716V95.3716ZM96.9499 72.9777L89.3851 93.775L90.3248 94.1169L97.8897 73.3196L96.9499 72.9777ZM134.347 72.6487H97.4198V73.6487H134.347V72.6487ZM142.381 93.775L134.816 72.9777L133.877 73.3196L141.441 94.1169L142.381 93.775ZM161.144 93.4459H141.911V94.4459H161.144V93.4459ZM126.058 3.10342L160.677 94.1237L161.611 93.7682L126.993 2.74793L126.058 3.10342ZM106.01 3.42568H126.525V2.42568H106.01V3.42568ZM71.6021 94.1248L106.477 3.10457L105.543 2.74678L70.6682 93.7671L71.6021 94.1248ZM89.8549 93.4459H71.1351V94.4459H89.8549V93.4459ZM103.787 57.1445L116.353 22.7391L115.414 22.396L102.848 56.8015L103.787 57.1445ZM128.449 56.473H103.318V57.473H128.449V56.473ZM115.414 22.7391L127.979 57.1445L128.918 56.8015L116.353 22.396L115.414 22.7391ZM306.928 96.5C316.772 96.5 325.651 93.484 332.075 87.6071C338.506 81.7242 342.431 73.0147 342.431 61.723H341.431C341.431 72.7691 337.599 81.1982 331.4 86.8693C325.195 92.5464 316.573 95.5 306.928 95.5V96.5ZM271.552 61.723C271.552 73.0147 275.478 81.7238 281.892 87.6067C288.299 93.4836 297.147 96.5 306.928 96.5V95.5C297.348 95.5 288.758 92.5468 282.568 86.8697C276.384 81.1985 272.552 72.7691 272.552 61.723H271.552ZM271.552 2.92568V61.723H272.552V2.92568H271.552ZM289.747 2.42568H272.052V3.42568H289.747V2.42568ZM290.247 60.4392V2.92568H289.247V60.4392H290.247ZM306.928 78.1689C301.771 78.1689 297.618 76.6283 294.753 73.6826C291.887 70.7356 290.247 66.3175 290.247 60.4392H289.247C289.247 66.5001 290.94 71.1969 294.036 74.3799C297.133 77.5643 301.571 79.1689 306.928 79.1689V78.1689ZM323.737 60.4392C323.737 66.3201 322.128 70.737 319.263 73.6826C316.4 76.6266 312.216 78.1689 306.928 78.1689V79.1689C312.41 79.1689 316.881 77.566 319.98 74.3799C323.077 71.1955 324.737 66.4975 324.737 60.4392H323.737ZM323.737 2.92568V60.4392H324.737V2.92568H323.737ZM341.931 2.42568H324.237V3.42568H341.931V2.42568ZM342.431 61.723V2.92568H341.431V61.723H342.431ZM415.913 72.6487H378.986V73.6487H415.913V72.6487ZM423.948 93.775L416.383 72.9777L415.443 73.3196L423.008 94.1169L423.948 93.775ZM442.71 93.4459H423.478V94.4459H442.71V93.4459ZM407.624 3.10342L442.243 94.1237L443.178 93.7682L408.559 2.74793L407.624 3.10342ZM387.577 3.42568H408.092V2.42568H387.577V3.42568ZM353.168 94.1248L388.044 3.10457L387.11 2.74678L352.235 93.7671L353.168 94.1248ZM371.421 93.4459H352.701V94.4459H371.421V93.4459ZM378.516 72.9777L370.951 93.775L371.891 94.1169L379.456 73.3196L378.516 72.9777ZM410.015 56.473H384.884V57.473H410.015V56.473ZM396.98 22.7391L409.545 57.1445L410.485 56.8014L397.919 22.396L396.98 22.7391ZM385.354 57.1445L397.919 22.7391L396.98 22.396L384.414 56.8015L385.354 57.1445ZM471.7 58.8986V93.9459H472.7V58.8986H471.7ZM481.432 58.3986H472.2V59.3986H481.432V58.3986ZM499.7 93.7193L481.878 58.672L480.986 59.1253L498.809 94.1726L499.7 93.7193ZM519 93.4459H499.254V94.4459H519V93.4459ZM499.068 56.9481L518.557 94.1778L519.443 93.7141L499.954 56.4843L499.068 56.9481ZM518.372 30.9122C518.372 43.3963 511.085 52.8311 499.371 56.2361L499.65 57.1963C511.785 53.6689 519.372 43.847 519.372 30.9122H518.372ZM489.895 3.42568C498.623 3.42568 505.736 6.43139 510.665 11.3514C515.596 16.2726 518.372 23.1382 518.372 30.9122H519.372C519.372 22.8956 516.506 15.768 511.372 10.6436C506.236 5.51794 498.86 2.42568 489.895 2.42568V3.42568ZM454.378 3.42568H489.895V2.42568H454.378V3.42568ZM454.878 93.9459V2.92568H453.878V93.9459H454.878ZM472.2 93.4459H454.378V94.4459H472.2V93.4459ZM486.561 43.1216H472.201V44.1216H486.561V43.1216ZM500.293 31.0405C500.293 34.6405 499.026 37.6449 496.706 39.7533C494.383 41.8657 490.955 43.1216 486.561 43.1216V44.1216C491.142 44.1216 494.831 42.81 497.379 40.4933C499.932 38.1726 501.293 34.8866 501.293 31.0405H500.293ZM486.561 18.8311C490.958 18.8311 494.385 20.0567 496.706 22.1673C499.023 24.2731 500.293 27.308 500.293 31.0405H501.293C501.293 27.0704 499.935 23.7505 497.379 21.4273C494.829 19.1089 491.139 17.8311 486.561 17.8311V18.8311ZM472.201 18.8311H486.561V17.8311H472.201V18.8311ZM472.701 43.6216V18.3311H471.701V43.6216H472.701Z" fill="#212121"/>
</svg>
